{
    "m_ClassifierDirectory": "Watson/Scripts/Editor/Classifiers/",
    "m_TimeOut": 30.0,
    "m_MaxRestConnections": 5,
    "m_Credentials": [
        {
            "m_ServiceID": "ConversationV1",
            "m_URL": "https://gateway.watsonplatform.net/conversation/api",
            "m_User": "bfa9cffc-ba64-409b-85c3-c557c2be0d34",
            "m_Password": "HEH3nE4upgwY",
            "m_Apikey": null,
            "m_Note": null
        }
    ],
    "m_Variables": []
}